Line, Large, Yes,56,57,58,59
Line, Small, No,8
Line, Large, No,24,24,11
Line, Small, Yes,1,1,2,3
Line, Large, Yes,55,55
Line, Small, No,66,66
Circle, Large, No,4
Circle, Small, Yes,5
Circle, Large, Yes,77,77,88,99
Circle, Small, No,56,56,75,78
Circle, Large, No,3,3,3,3
Circle, Small, Yes,88,88,88
Ellipse, Large, Yes,7
Ellipse, Small, No,99,102,234,234
Ellipse, Large, No,567,567,320
Ellipse, Small, Yes,3,3,4
Ellipse, Large, Yes,11,11
Ellipse, Small, No,22,22
Equilateral, Large, Yes,98
Equilateral, Small, No,45,1,2,3
Equilateral, Large, No,23,23,87
Equilateral, Small, Yes,57,24,54,54
Equilateral, Large, Yes,76,76
Equilateral, Small, No,5,5
Isosceles, Large, Yes,4
Isosceles, Small, No,121,120
Isosceles, Large, No,555,555,666,777
Isosceles, Small, Yes,4,5,7,7
Isosceles, Large, Yes,666,666
Isosceles, Small, No,9,9,9,9
Scalene, Large, Yes,5
Scalene, Small, No,34,25,62,76
Scalene, Large, No,55,55,74
Scalene, Small, Yes,12,32,5,5
Scalene, Large, Yes,97,97
Scalene, Small, No,8,8
Square, Large, Yes,8
Square, Small, No,88,98,65,12
Square, Large, No,421,421,12
Square, Small, Yes,1,3,11,11
Square, Large, Yes,99,99
Square, Small, No,32,32
Rectangle, Large, Yes,4
Rectangle, Small, No,121,123,131,144
Rectangle, Large, No,141,121,121
Rectangle, Small, Yes,31,31,4,4
Rectangle, Large, Yes,321,321
Rectangle, Small, No,2,2
Line, Large, No,1
Ellipse, Small, No,1
Equilateral, Small, No,3
Isosceles, Small, No,32
Scalene, Small, No,22
Square, Small, No,15
Rectangle, Small, No,42
Line, Small, Yes,42
Circle, Small, Yes,32,98
Circle, Large, Yes,1,2,3,4
Isosceles, Small, No,1,3,21
Line, Small, Yes,121,121,121,121
Ellipse, Large, Yes,131,131,131,131
Equilateral, Large, Yes,321,321,321,321
Scalene, Large, No,766,766,766,766
Square, Large, Yes,1,1,1,1
Rectangle, Large, No,44,44,44,44
Circle, Large, No,55,55
Line, Small, No,141,23,141,41
Isosceles, Small, Yes,321,232,123,563
Ellipse, Small, Yes,11,31,31,2
Circle, Small, No,5,5,2
Isosceles, Large, No,12,32,12
Ellipse, Large, Yes,125,132
Equilateral, Large, Yes,675,566
Equilateral, Small, No,2,2,3,5
Line, Small, No,11,11,11,11